{
  "kind": "collectionType",
  "collectionName": "user_types",
  "info": {
    "name": "userType"
  },
  "options": {
    "increments": true,
    "timestamps": true
  },
  "attributes": {
    "name": {
      "type": "string"
    }
  }
}
