{
  "routes": [
    {
      "method": "GET",
      "path": "/range-of-compensations",
      "handler": "range-of-compensation.find",
      "config": {
        "policies": []
      }
    },
    {
      "method": "GET",
      "path": "/range-of-compensations/count",
      "handler": "range-of-compensation.count",
      "config": {
        "policies": []
      }
    },
    {
      "method": "GET",
      "path": "/range-of-compensations/:id",
      "handler": "range-of-compensation.findOne",
      "config": {
        "policies": []
      }
    },
    {
      "method": "POST",
      "path": "/range-of-compensations",
      "handler": "range-of-compensation.create",
      "config": {
        "policies": []
      }
    },
    {
      "method": "PUT",
      "path": "/range-of-compensations/:id",
      "handler": "range-of-compensation.update",
      "config": {
        "policies": []
      }
    },
    {
      "method": "DELETE",
      "path": "/range-of-compensations/:id",
      "handler": "range-of-compensation.delete",
      "config": {
        "policies": []
      }
    }
  ]
}
